{
  "type": "service_account",
  "project_id": "centralstrickers",
  "private_key_id": "5a21408b0a75e57bc141a78bc8bc224189106c86",
  "private_key": "-----BEGIN PRIVATE KEY-----\nMIIEvwIBADANBgkqhkiG9w0BAQEFAASCBKkwggSlAgEAAoIBAQCZG+F2RRwJa7jS\nTHPli330vSW4rWrgKvYf9ToXwdPpSy0E8w1vwATql9T/NbLVcSnNPyYNxMmdHRCw\n7LtlSewh96iOiEJJrvB2vX5MZ+vog0+Rvj16OSv1qItxIlN+f9OFH+Mj98gAxgpT\nwtoLXt1ppzGNs73v2BXz+yZf/+RYO2PazGDcNRlaYhiY4L2NmedsECQKBqXy59yD\nKR0CbhriYWNiXlRN2yJ2+Nc8LlHdOV9Wys4UvIj0KKH23QC+JQExZc+FPRUmNSau\nRSHvb7QfIrDHE1TI4tcFV+GO+eDpGc0q9GCTFSIOJFF8kMmkXZUYkD1G7xP0sWwZ\nPWUjT50pAgMBAAECggEAR8fHcxBBbbVAB+/p4fL80TGgLq22znO1whPQ8XRgqh4h\ndBGS+hI2+9jE9gUx21lbdKsnZwscTnli6t+Bl6IJf39BWdlN4oeOmsyKGr4Z3n85\nXaWn4tZM4rXq8dZa+JJrEx14+tLexGYUT2KpoO0Ptsm4tKtQ39IZsLHNMvKgFjC/\noMUgYlnaqwgYUIOJLCUBsAWi2aDi0TtxNVTbadQ2I29eu1fpeDUt4DOqharEHBCl\n19wxMC+HhhRhQarbUvtA3IPh3w6W3t9C2NYJ077busk2zIP8qOqIajWAdlNE2zaM\nIzo9scI1nNJSgZ4z6m+1eqVZ4PKJNS1JpaAki4oVFQKBgQDVPxIzejtPFBXezg2E\nLB7sYdmdBvm1y1w9/cWTcAA9PTeWAhp+gkrnBPCj8yPlRmJRRBUC95Bfo8YWn+WP\nAzCd0M7+37wpe3MsUC2UoQkiFNu22cLozPWH2RMQxo6AMxRIRw1TjMF5iYQwEAOF\n8jv/F49PT7O2DLMCi9RcaWdsmwKBgQC3zjzc8RvZ4Z/b+BowsXUiCqkEpcjaktvt\nb2IucH8DZnpDRH9aHULpJ9kRkkSf+VN4BK3E8fT25oUHDXG7lhbTWCalj/YrM+0M\nX0SMJmBgN8dVduB68NgG0fewbmcrKmyblIEEpIsjR/pDXncBWe6YTxWBUpas+IMR\nM2j3TGC/iwKBgQCIZA/DJxHaEVGvsQEKIaIhtLAX9Ecw1IIKEE8XbxJoGMh9xJin\ng7ResFUtt6ykz3DA45fAzxDjav+epuSPpQ2qUsyiTf2uVowisqGEp78MsmSZPgyh\nE76TBe9g0m6AZqs5U2CdqLByiNcoWoW2XWmsTahWpPafoN256i+Ib847swKBgQCg\nlKXHwT271Mp8uvzmnaLf4sBXNx+LFdLeVPlJ6S6OIfGe4zD/4aCbYhzapRcfTAwI\nRs4pydlh+3Ms/inm4PGAIvtgma1PgUYQEQsqBj0c0p5rpDfqMJALJVVn5oxrwdyw\n78Tn8Xk9kZyrTtRZceBpYG5BVY4d/99CH9AMfcXokQKBgQCJHUZWxy8gp8sKrZVW\nQmoaHIzfNMrin/k8+nPBcwsTTUB6Rn+oqbfUFaAcvYd+NazZOMaoR+7pv/Kdroa0\nH2uQdboGTUC/D73odyj77nU2UMlAk2jPXdWnRPf3+8UadXjZhbvG3G2YwqnCK/2m\n5tL4dgEyGF3PG5BZhi783Bvdbg==\n-----END PRIVATE KEY-----\n",
  "client_email": "firebase-adminsdk-5f8yr@centralstrickers.iam.gserviceaccount.com",
  "client_id": "107010984042626145671",
  "auth_uri": "https://accounts.google.com/o/oauth2/auth",
  "token_uri": "https://oauth2.googleapis.com/token",
  "auth_provider_x509_cert_url": "https://www.googleapis.com/oauth2/v1/certs",
  "client_x509_cert_url": "https://www.googleapis.com/robot/v1/metadata/x509/firebase-adminsdk-5f8yr%40centralstrickers.iam.gserviceaccount.com"
}
